<svg xmlns="http://www.w3.org/2000/svg" width="50.749" height="50.749" viewBox="0 0 50.749 50.749">
  <path id="ic_view_comfy_24px" d="M-7,6.875H4.875V-5H-7Zm0,18.437H4.875V13.437H-7Zm18.437,0H23.312V13.437H11.437Zm18.437,0H41.749V13.437H29.874ZM11.437,6.875H23.312V-5H11.437ZM29.874-5V6.875H41.749V-5ZM-7,43.749H4.875V31.874H-7Zm18.437,0H23.312V31.874H11.437Zm18.437,0H41.749V31.874H29.874Z" transform="translate(8 6)" fill="none" stroke="#fff" stroke-width="2"/>
</svg>
